^D:\FILES PROGRAM\ALIF\REVERSE_3\SOROKKO 200\SOROKKO 200\DEBUG\SOROKKO 200.OBJ
D:\FILES PROGRAM\ALIF\REVERSE_3\SOROKKO 200\DEBUG\SOROKKO 200.EXE
D:\FILES PROGRAM\ALIF\REVERSE_3\SOROKKO 200\DEBUG\SOROKKO 200.ILK
D:\FILES PROGRAM\ALIF\REVERSE_3\SOROKKO 200\DEBUG\SOROKKO 200.PDB
