^D:\FILES PROGRAM\ALIF\REVERSE_2\GROKE 200\GROKE 200\GROKE 200.CPP
D:\FILES PROGRAM\ALIF\REVERSE_2\GROKE 200\GROKE 200\DEBUG\VC141.PDB
D:\FILES PROGRAM\ALIF\REVERSE_2\GROKE 200\GROKE 200\DEBUG\VC141.IDB
D:\FILES PROGRAM\ALIF\REVERSE_2\GROKE 200\GROKE 200\DEBUG\GROKE 200.OBJ
