^D:\FILES PROGRAM\ALIF\REVERSE_7\KORNILTSEV_200\KORNILTSEV\KORNILTSEV\DEBUG\KORNILTSEV.OBJ
D:\FILES PROGRAM\ALIF\REVERSE_7\KORNILTSEV_200\KORNILTSEV\DEBUG\KORNILTSEV.EXE
D:\FILES PROGRAM\ALIF\REVERSE_7\KORNILTSEV_200\KORNILTSEV\DEBUG\KORNILTSEV.ILK
D:\FILES PROGRAM\ALIF\REVERSE_7\KORNILTSEV_200\KORNILTSEV\DEBUG\KORNILTSEV.PDB
