^C:\USERS\НИКИТА\SOURCE\REPOS\CONSOLEAPPLICATION10\CONSOLEAPPLICATION10.CPP
C:\USERS\Никита\SOURCE\REPOS\CONSOLEAPPLICATION10\DEBUG\VC142.PDB
C:\USERS\Никита\SOURCE\REPOS\CONSOLEAPPLICATION10\DEBUG\VC142.IDB
C:\USERS\Никита\SOURCE\REPOS\CONSOLEAPPLICATION10\DEBUG\CONSOLEAPPLICATION10.OBJ
