^D:\FILES PROGRAM\ALIF\CONSOLEAPPLICATION5\CONSOLEAPPLICATION5\CONSOLEAPPLICATION5.CPP
/c /ZI /JMC /nologo /W3 /WX- /diagnostics:classic /sdl /Od /Oy- /D WIN32 /D _DEBUG /D _CONSOLE /D _UNICODE /D UNICODE /Gm- /EHsc /RTC1 /MDd /GS /fp:precise /permissive- /Zc:wchar_t /Zc:forScope /Zc:inline /Fo"DEBUG\\" /Fd"DEBUG\VC141.PDB" /Gd /TP /analyze- /FC D:\FILES PROGRAM\ALIF\CONSOLEAPPLICATION5\CONSOLEAPPLICATION5\CONSOLEAPPLICATION5.CPP
^D:\FILES PROGRAM\ALIF\ERLAND 150\CONSOLEAPPLICATION5\CONSOLEAPPLICATION5.CPP
/c /ZI /JMC /nologo /W3 /WX- /diagnostics:classic /sdl /Od /Oy- /D WIN32 /D _DEBUG /D _CONSOLE /D _UNICODE /D UNICODE /Gm- /EHsc /RTC1 /MDd /GS /fp:precise /permissive- /Zc:wchar_t /Zc:forScope /Zc:inline /Fo"DEBUG\\" /Fd"DEBUG\VC141.PDB" /Gd /TP /analyze- /FC D:\FILES PROGRAM\ALIF\ERLAND 150\CONSOLEAPPLICATION5\CONSOLEAPPLICATION5.CPP
