^D:\FILES PROGRAM\ALIF\REVERSE_6\VOS250\VOS250\VOS250.CPP
D:\FILES PROGRAM\ALIF\REVERSE_6\VOS250\VOS250\DEBUG\VC141.PDB
D:\FILES PROGRAM\ALIF\REVERSE_6\VOS250\VOS250\DEBUG\VC141.IDB
D:\FILES PROGRAM\ALIF\REVERSE_6\VOS250\VOS250\DEBUG\VOS250.OBJ
